com.sun.javatest.ExcludeList
com.sun.javatest.ExcludeList$Entry
com.sun.javatest.ExcludeList$Fault
com.sun.javatest.ExcludeList$Key
com.sun.javatest.ExcludeList$Parser
com.sun.javatest.TestDescription
com.sun.javatest.TestDescription$1
com.sun.javatest.servlets.ExcludeBrowser
com.sun.javatest.util.DynamicArray
com.sun.javatest.util.I18NResourceBundle
com.sun.javatest.util.Properties
com.sun.javatest.util.PropertyArray
com.sun.javatest.util.PropertyArray$1
com.sun.javatest.util.PropertyArray$PropertyArrayError
com.sun.javatest.util.StringArray
